[
    {
        "id": "absorption",
        "name": "伤害吸收"
    },
    {
        "id": "bad_omen",
        "name": "不祥之兆"
    },
    {
        "id": "blindness",
        "name": "失明"
    },
    {
        "id": "conduit_power",
        "name": "潮涌能量"
    },
    {
        "id": "darkness",
        "name": "黑暗"
    },
    {
        "id": "dolphins_grace",
        "name": "海豚的恩惠"
    },
    {
        "id": "fire_resistance",
        "name": "抗火"
    },
    {
        "id": "glowing",
        "name": "发光"
    },
    {
        "id": "haste",
        "name": "急迫"
    },
    {
        "id": "health_boost",
        "name": "生命提升"
    },
    {
        "id": "hero_of_the_village",
        "name": "村庄英雄"
    },
    {
        "id": "hunger",
        "name": "饥饿"
    },
    {
        "id": "infested",
        "name": "寄生"
    },
    {
        "id": "instant_damage",
        "name": "瞬间伤害"
    },
    {
        "id": "instant_health",
        "name": "瞬间治疗"
    },
    {
        "id": "invisibility",
        "name": "隐身"
    },
    {
        "id": "jump_boost",
        "name": "跳跃提升"
    },
    {
        "id": "levitation",
        "name": "飘浮"
    },
    {
        "id": "luck",
        "name": "幸运"
    },
    {
        "id": "mining_fatigue",
        "name": "挖掘疲劳"
    },
    {
        "id": "nausea",
        "name": "反胃"
    },
    {
        "id": "night_vision",
        "name": "夜视"
    },
    {
        "id": "oozing",
        "name": "渗浆"
    },
    {
        "id": "poison",
        "name": "中毒"
    },
    {
        "id": "raid_omen",
        "name": "袭击之兆"
    },
    {
        "id": "regeneration",
        "name": "生命恢复"
    },
    {
        "id": "resistance",
        "name": "抗性提升"
    },
    {
        "id": "saturation",
        "name": "饱和"
    },
    {
        "id": "slow_falling",
        "name": "缓降"
    },
    {
        "id": "slowness",
        "name": "缓慢"
    },
    {
        "id": "speed",
        "name": "迅捷"
    },
    {
        "id": "strength",
        "name": "力量"
    },
    {
        "id": "trial_omen",
        "name": "试炼之兆"
    },
    {
        "id": "unluck",
        "name": "霉运"
    },
    {
        "id": "water_breathing",
        "name": "水下呼吸"
    },
    {
        "id": "weakness",
        "name": "虚弱"
    },
    {
        "id": "weaving",
        "name": "盘丝"
    },
    {
        "id": "wind_charged",
        "name": "蓄风"
    },
    {
        "id": "wither",
        "name": "凋零"
    }
]