[
    {
        "id": "aqua_affinity",
        "name": "水下速掘"
    },
    {
        "id": "bane_of_arthropods",
        "name": "节肢杀手"
    },
    {
        "id": "binding_curse",
        "name": "绑定诅咒"
    },
    {
        "id": "blast_protection",
        "name": "爆炸保护"
    },
    {
        "id": "channeling",
        "name": "引雷"
    },
    {
        "id": "depth_strider",
        "name": "深海探索者"
    },
    {
        "id": "efficiency",
        "name": "效率"
    },
    {
        "id": "feather_falling",
        "name": "摔落保护"
    },
    {
        "id": "fire_aspect",
        "name": "火焰附加"
    },
    {
        "id": "fire_protection",
        "name": "火焰保护"
    },
    {
        "id": "flame",
        "name": "火矢"
    },
    {
        "id": "fortune",
        "name": "时运"
    },
    {
        "id": "frost_walker",
        "name": "冰霜行者"
    },
    {
        "id": "impaling",
        "name": "穿刺"
    },
    {
        "id": "infinity",
        "name": "无限"
    },
    {
        "id": "knockback",
        "name": "击退"
    },
    {
        "id": "looting",
        "name": "抢夺"
    },
    {
        "id": "loyalty",
        "name": "忠诚"
    },
    {
        "id": "luck_of_the_sea",
        "name": "海之眷顾"
    },
    {
        "id": "lure",
        "name": "饵钓"
    },
    {
        "id": "mending",
        "name": "经验修补"
    },
    {
        "id": "multishot",
        "name": "多重射击"
    },
    {
        "id": "piercing",
        "name": "穿透"
    },
    {
        "id": "power",
        "name": "力量"
    },
    {
        "id": "projectile_protection",
        "name": "弹射物保护"
    },
    {
        "id": "protection",
        "name": "保护"
    },
    {
        "id": "punch",
        "name": "冲击"
    },
    {
        "id": "quick_charge",
        "name": "快速装填"
    },
    {
        "id": "respiration",
        "name": "水下呼吸"
    },
    {
        "id": "riptide",
        "name": "激流"
    },
    {
        "id": "sharpness",
        "name": "锋利"
    },
    {
        "id": "silk_touch",
        "name": "精准采集"
    },
    {
        "id": "smite",
        "name": "亡灵杀手"
    },
    {
        "id": "soul_speed",
        "name": "灵魂疾行"
    },
    {
        "id": "sweeping",
        "name": "横扫之刃"
    },
    {
        "id": "thorns",
        "name": "荆棘"
    },
    {
        "id": "unbreaking",
        "name": "耐久"
    },
    {
        "id": "vanishing_curse",
        "name": "消失诅咒"
    }
]