[
    {
        "id": "announceAdvancements",
        "name": "进度通知"
    },
    {
        "id": "blockExplosionDropDecay",
        "name": "在方块交互爆炸中，一些方块不会掉落战利品"
    },
    {
        "id": "commandBlockOutput",
        "name": "广播命令方块输出"
    },
    {
        "id": "commandModificationBlockLimit",
        "name": "命令修改方块数量限制"
    },
    {
        "id": "disableElytraMovementCheck",
        "name": "禁用鞘翅移动检测"
    },
    {
        "id": "disablePlayerMovementCheck",
        "name": "禁用玩家移动检测"
    },
    {
        "id": "disableRaids",
        "name": "禁用袭击"
    },
    {
        "id": "doDaylightCycle",
        "name": "游戏内时间流逝"
    },
    {
        "id": "doEntityDrops",
        "name": "非生物实体掉落"
    },
    {
        "id": "doFireTick",
        "name": "火焰蔓延"
    },
    {
        "id": "doImmediateRespawn",
        "name": "立即重生"
    },
    {
        "id": "doInsomnia",
        "name": "生成幻翼"
    },
    {
        "id": "doLimitedCrafting",
        "name": "合成需要配方"
    },
    {
        "id": "doMobLoot",
        "name": "生物战利品掉落"
    },
    {
        "id": "doMobSpawning",
        "name": "生成生物"
    },
    {
        "id": "doPatrolSpawning",
        "name": "生成灾厄巡逻队"
    },
    {
        "id": "doTileDrops",
        "name": "方块掉落"
    },
    {
        "id": "doTraderSpawning",
        "name": "生成流浪商人"
    },
    {
        "id": "doVinesSpread",
        "name": "藤蔓蔓延"
    },
    {
        "id": "doWardenSpawning",
        "name": "生成监守者"
    },
    {
        "id": "doWeatherCycle",
        "name": "天气更替"
    },
    {
        "id": "drowningDamage",
        "name": "溺水伤害"
    },
    {
        "id": "enderPearlsVanishOnDeath",
        "name": "掷出的末影珍珠在死亡时消失"
    },
    {
        "id": "entitiesWithPassengersCanUsePortals",
        "name": "被骑乘的实体能否使用传送门"
    },
    {
        "id": "fallDamage",
        "name": "摔落伤害"
    },
    {
        "id": "fireDamage",
        "name": "火焰伤害"
    },
    {
        "id": "forgiveDeadPlayers",
        "name": "宽恕死亡玩家"
    },
    {
        "id": "freezeDamage",
        "name": "冰冻伤害"
    },
    {
        "id": "globalSoundEvents",
        "name": "全局声音事件"
    },
    {
        "id": "keepInventory",
        "name": "死亡后保留物品栏"
    },
    {
        "id": "lavaSourceConversion",
        "name": "允许流动熔岩转化为熔岩源"
    },
    {
        "id": "logAdminCommands",
        "name": "通告管理员命令"
    },
    {
        "id": "maxCommandChainLength",
        "name": "命令连锁执行数量限制"
    },
    {
        "id": "maxCommandForkCount",
        "name": "命令上下文数量限制"
    },
    {
        "id": "maxEntityCramming",
        "name": "实体挤压上限"
    },
    {
        "id": "minecartMaxSpeed",
        "name": "矿车最大速度"
    },
    {
        "id": "mobExplosionDropDecay",
        "name": "在生物爆炸中，一些方块不会掉落战利品"
    },
    {
        "id": "mobGriefing",
        "name": "允许破坏性生物行为"
    },
    {
        "id": "naturalRegeneration",
        "name": "生命值自然恢复"
    },
    {
        "id": "playersNetherPortalCreativeDelay",
        "name": "创造模式下玩家在下界传送门中等待的时间"
    },
    {
        "id": "playersNetherPortalDefaultDelay",
        "name": "非创造模式下玩家在下界传送门中等待的时间"
    },
    {
        "id": "playersSleepingPercentage",
        "name": "入睡占比"
    },
    {
        "id": "projectilesCanBreakBlocks",
        "name": "弹射物能否破坏方块"
    },
    {
        "id": "randomTickSpeed",
        "name": "随机刻速率"
    },
    {
        "id": "reducedDebugInfo",
        "name": "简化调试信息"
    },
    {
        "id": "sendCommandFeedback",
        "name": "发送命令反馈"
    },
    {
        "id": "showDeathMessages",
        "name": "显示死亡消息"
    },
    {
        "id": "snowAccumulationHeight",
        "name": "积雪厚度"
    },
    {
        "id": "spawnChunkRadius",
        "name": "出生区块半径"
    },
    {
        "id": "spawnRadius",
        "name": "重生点半径"
    },
    {
        "id": "spectatorsGenerateChunks",
        "name": "允许旁观者生成地形"
    },
    {
        "id": "tntExplosionDropDecay",
        "name": "在TNT爆炸中，一些方块不会掉落战利品"
    },
    {
        "id": "universalAnger",
        "name": "无差别愤怒"
    },
    {
        "id": "waterSourceConversion",
        "name": "允许流动水转化为水源"
    }
]